<?xml version="1.0" encoding="utf-8"?>
<TEI xmlns="http://www.tei-c.org/ns/1.0">
 <teiHeader>
  <fileDesc>
   <titleStmt>
    <title type="notice"> Penthière </title>
    <author>Marie-Laure Legay</author>
   </titleStmt>
   <publicationStmt>
    <publisher> MESHS de Lille dans le cadre de l'ANR FermeGé Administrer le privilège la Ferme
     générale dans l'espace français et européen (1664-1794)Axe 1 : Dictionnaire de la Ferme
     générale, objet d'histoire totale </publisher>
    <pubPlace>
     <address>
      <addrLine> Maison Européenne des Sciences de l'Homme et de la Société </addrLine>
      <addrLine> 2 rue des cannoniers </addrLine>
      <addrLine> 59002 Lille Cedex </addrLine>
     </address>
     <date> 2021-2025 </date>
    </pubPlace>
    <availability>
     <licence> [A déterminer. Ex:Creative Commons Attribution 3.0 non transposé (CC BY 3.0)]
     </licence>
    </availability>
   </publicationStmt>
   <seriesStmt>
    <title> Dictionnaire numérique de la Ferme générale </title>
    <respStmt>
     <resp> Coordinateurs de l'axe : Dictionnaire numérique de la Ferme générale, objet d'histoire
      totale. </resp>
     <persName> Marie-Laure Legay </persName>
     <persName> Thomas Boullu </persName>
    </respStmt>
   </seriesStmt>
   <sourceDesc>
    <p> Dictionnaire numérique de la Ferme générale </p>
   </sourceDesc>
  </fileDesc>
  <encodingDesc>
   <projectDesc
    source="https://anr.fr/fr/projets-finances-et-impact/projets-finances/projet/funded/project/anr-21-ce41-0019/?tx_anrprojects_funded%5Bcontroller%5D=Fundedamp;cHash=5c64d94ca826534590e484c6f39658b3">
    <p> Le projet FermGé vise à étudier l’impact d’une organisation fiscale (1664-1794),
     discriminante mais rationnelle, sur les territoires et les sociétés de la France moderne/p&gt;
    </p>
   </projectDesc>
   
  </encodingDesc><profileDesc>
    <textClass>
     <keywords scheme="#fr_RAMEAU">
      <list>
       <item> Histoire -- Histoire moderne -- Histoire fiscale </item>
      </list>
     </keywords>
    </textClass>
   </profileDesc>
   <revisionDesc>
    <change type="AutomaticallyEncoded"> 2022-12-20T10:02:57.606265+2:00 </change>
   </revisionDesc>
 </teiHeader>
 <text>
  <body>
   <entry type="P" xml:id="Penthière">
    <form type="lemma">
     <orth> Penthière </orth>
    </form>
    <sense>
     <def> Il s’agit du secteur de compétence couvert par une <ref target="#brigade"> brigade </ref>
      . Le terme apparaît tardivement, par exemple dans ce « mémoire sur la régie du <placeName
       type="lieux_habitations"> port de Marseille </placeName> pour les traites, les gabelles et le
      tabac (AN, G1 83, dossier 5, vers <date when="1780"> 1780 </date> ) : « J’ajouterai,
      Messieurs, que la résidence de Cavaillon à une extrémité de la penthière est peu favorable. Il
      est très difficile qu’un homme à pied exerce convenablement des postes aussi éloignés que
      Carpentras, Apt et Sisteron ». Le mot accompagne la militarisation des brigades de la Ferme
      générale. Le développement de la <ref target="#contrebande"> contrebande </ref> pendant et
      après la guerre de Sept-Ans ( <date when="1756"> 1756 </date> - <date when="1763"> 1763
      </date> ) nécessita l’armement renforcé des <ref target="#brigades"> brigades </ref> et la
      mise sur pieds des troupes de cavaliers habillés, armés, montés uniformément et composés de
      sujets d’élite. En <orgName subtype="province" type="pays_et_provinces">
       <ref target="#Franche-Comté"> Franche-Comté </ref>
      </orgName> , en <orgName subtype="province" type="pays_et_provinces">
       <ref target="#Dauphiné"> Dauphiné </ref>
      </orgName> , Choiseul donna des ordres aux <ref target="#intendants"> intendants </ref> pour
      que ces nouvelles brigades fussent fournies en vivres et fourrages et en armes. </def>
     <bibl type="references">
      <bibl> ; </bibl>
     </bibl>
    </sense>
   </entry>
  </body>
 </text>
</TEI>
