<?xml version="1.0" encoding="utf-8"?>
<TEI xmlns="http://www.tei-c.org/ns/1.0">
 <teiHeader>
  <fileDesc>
   <titleStmt>
    <title type="notice"> Richelieu (ville de) </title>
    <author>Marie-Laure Legay</author>
   </titleStmt>
   <publicationStmt>
    <publisher> MESHS de Lille dans le cadre de l'ANR FermeGé Administrer le privilège la Ferme
     générale dans l'espace français et européen (1664-1794)Axe 1 : Dictionnaire de la Ferme
     générale, objet d'histoire totale </publisher>
    <pubPlace>
     <address>
      <addrLine> Maison Européenne des Sciences de l'Homme et de la Société </addrLine>
      <addrLine> 2 rue des cannoniers </addrLine>
      <addrLine> 59002 Lille Cedex </addrLine>
     </address>
     <date> 2021-2025 </date>
    </pubPlace>
    <availability>
     <licence> [A déterminer. Ex:Creative Commons Attribution 3.0 non transposé (CC BY 3.0)]
     </licence>
    </availability>
   </publicationStmt>
   <seriesStmt>
    <title> Dictionnaire numérique de la Ferme générale </title>
    <respStmt>
     <resp> Coordinateurs de l'axe : Dictionnaire numérique de la Ferme générale, objet d'histoire
      totale. </resp>
     <persName> Marie-Laure Legay </persName>
     <persName> Thomas Boullu </persName>
    </respStmt>
   </seriesStmt>
   <sourceDesc>
    <p> Dictionnaire numérique de la Ferme générale </p>
   </sourceDesc>
  </fileDesc>
  <encodingDesc>
   <projectDesc
    source="https://anr.fr/fr/projets-finances-et-impact/projets-finances/projet/funded/project/anr-21-ce41-0019/?tx_anrprojects_funded%5Bcontroller%5D=Fundedamp;cHash=5c64d94ca826534590e484c6f39658b3">
    <p> Le projet FermGé vise à étudier l’impact d’une organisation fiscale (1664-1794),
     discriminante mais rationnelle, sur les territoires et les sociétés de la France moderne/p&gt;
    </p>
   </projectDesc>
   
  </encodingDesc><profileDesc>
    <textClass>
     <keywords scheme="#fr_RAMEAU">
      <list>
       <item> Histoire -- Histoire moderne -- </item>
      </list>
     </keywords>
    </textClass>
   </profileDesc>
   <revisionDesc>
    <change type="AutomaticallyEncoded"> 2022-12-20T14:37:37.110929+2:00 </change>
   </revisionDesc>
 </teiHeader>
 <text>
  <body>
   <entry type="R" xml:id="Richelieu_ville_de">
    <form type="lemma">
     <orth> Richelieu (ville de) </orth>
    </form>
    <sense>
     <def> Les habitants de Richelieu disposaient du <ref target="#privilège"> privilège </ref> de
      prendre au <ref target="#grenier"> grenier </ref> tout le sel dont ils avaient besoin pour
      leur usage en payant le prix du marchand seulement. Ce privilège avait été accordé en <date when="1631"> 1631
       </date> et renouvelé en <date when="1633"> 1633 </date>. En <date when="1722"> 1722
       </date> , le roi voulut réduire ce privilège à un <ref target="#minot"> minot </ref> de sel
       par an pour sept personnes  . Le duc de Richelieu fit valoir les droits anciens de sa
      ville mais les Fermiers généraux obtinrent le maintien de l’arrêt du 7 juillet <date
       when="1722"> 1722 </date> , considérant que les besoins de la ville allaient en deça du <ref
       target="#minot"> minot </ref> pour 7 personnes et proposant au ministre des finances de se
      concerter avec les maire et échevins pour établir un état détaillé de la consommation. Ce
      dernier accepta la proposition. </def>
     <bibl type="references">
      <bibl> [ <idno type="ArchivalIdentifier"> AN, G1 91, dossier 50 : « Privilèges des habitants
        de Richelieu »]; </idno>
      </bibl>
     </bibl>
    </sense>
   </entry>
  </body>
 </text>
</TEI>
