<?xml version="1.0" encoding="utf-8"?>
<TEI xmlns="http://www.tei-c.org/ns/1.0">
 <teiHeader>
  <fileDesc>
   <titleStmt>
    <title type="notice"> Welferding (Sarreguemines) </title>
    <author>Marie-Laure Legay</author>
   </titleStmt>
   <publicationStmt>
    <publisher> MESHS de Lille dans le cadre de l'ANR FermeGé Administrer le privilège la Ferme
     générale dans l'espace français et européen (1664-1794)Axe 1 : Dictionnaire de la Ferme
     générale, objet d'histoire totale </publisher>
    <pubPlace>
     <address>
      <addrLine> Maison Européenne des Sciences de l'Homme et de la Société </addrLine>
      <addrLine> 2 rue des cannoniers </addrLine>
      <addrLine> 59002 Lille Cedex </addrLine>
     </address>
     <date> 2021-2025 </date>
    </pubPlace>
    <availability>
     <licence> [A déterminer. Ex:Creative Commons Attribution 3.0 non transposé (CC BY 3.0)]
     </licence>
    </availability>
   </publicationStmt>
   <seriesStmt>
    <title> Dictionnaire numérique de la Ferme générale </title>
    <respStmt>
     <resp> Coordinateurs de l'axe : Dictionnaire numérique de la Ferme générale, objet d'histoire
      totale. </resp>
     <persName> Marie-Laure Legay </persName>
     <persName> Thomas Boullu </persName>
    </respStmt>
   </seriesStmt>
   <sourceDesc>
    <p> Dictionnaire numérique de la Ferme générale </p>
   </sourceDesc>
  </fileDesc>
  <encodingDesc>
   <projectDesc
    source="https://anr.fr/fr/projets-finances-et-impact/projets-finances/projet/funded/project/anr-21-ce41-0019/?tx_anrprojects_funded%5Bcontroller%5D=Fundedamp;cHash=5c64d94ca826534590e484c6f39658b3">
    <p> Le projet FermGé vise à étudier l’impact d’une organisation fiscale (1664-1794),
     discriminante mais rationnelle, sur les territoires et les sociétés de la France moderne/p&gt;
    </p>
   </projectDesc>
   
  </encodingDesc><profileDesc>
    <textClass>
     <keywords scheme="#fr_RAMEAU">
      <list>
       <item> Histoire -- Histoire moderne -- Histoire des relations internationales </item>
      </list>
     </keywords>
    </textClass>
   </profileDesc>
   <revisionDesc>
    <change type="AutomaticallyEncoded"> 2022-12-21T09:44:51.683294+2:00 </change>
   </revisionDesc>
 </teiHeader>
 <text>
  <body>
   <entry type="W" xml:id="Welferding_Sarreguemines">
    <form type="lemma">
     <orth> Welferding (Sarreguemines) </orth>
    </form>
    <sense>
     <def> La baronnie de Welferding et la <orgName subtype="pays" type="pays_et_provinces">
       seigneurie de Frauenberg </orgName> appartenaient au comte de La Leyen, issu d’une ancienne
      famille d’ <ref target="#Allemagne"> Allemagne </ref> . Parmi les droits éminents attachés à
      cette baronnie, celui de la vente du sel. Dans le cadre des échanges de seigneuries effectués
      à la frontière de la <orgName subtype="province" type="pays_et_provinces"> Lorraine </orgName>
      et des territoires allemands, le ministre Charles Gravier de Vergennes se porta acquéreur en
       <date when="1782"> 1782 </date> des terres de Welferding, Frauenberg et Sarreinsming. Il
      constata toutefois les difficultés liées à la régie de ce droit : « les droits de cette vente
      se trouveraient habituellement en collision avec la gabelle royale de <orgName
       subtype="province" type="pays_et_provinces"> Lorraine </orgName> et les sujets de la baronnie
      anciennement accoutumés à faire le commerce du faux-sel, abuseraient de leur situation à
      l’extrême frontière pour le continuer en se couvrant du prétexte de la vente seigneuriale ».
      Ce ministre convint donc de réunir cette vente seigneuriale à la gabelle royale exploitée par
      la Ferme générale. Le bénéfice net de la <ref target="#gabelle"> gabelle </ref> de Welferding
      fut estimé à 4 358 livres par an, soit la consommation de 24 muids des habitants de la
      baronnie. Par délicatesse, Vergennes agréa cette estimation ; dans les faits, sous le régime
      du comte de la Leyen, la vente du sel à Welferding était montée annuellement jusqu’à 86 muids. </def>
     <bibl type="references">
      <bibl> [ <idno type="ArchivalIdentifier"> AN, G1 95, dossier 23 sur la vente de sel ; </idno>
      </bibl>
      <bibl> Jean-François Noël, « Les problèmes de frontières entre la France et l’Empire dans la
       seconde moitié du XVIIIe siècle », Revue Historique, 235, 1966, p. 333–346 ; </bibl>
      <bibl> Laurent Jalabert, « Du territoire d’entre-deux à la limite : l’espace lorrain à
       l’épreuve de l’Etat, XVIe-XVIIIe siècles », Revue de géographie historique, 4, 2014, mis en
       ligne le 19 mai 2014 </bibl>
     </bibl>
    </sense>
   </entry>
  </body>
 </text>
</TEI>
